# Blender v2.79 (sub 0) OBJ File: ''
# www.blender.org
o Cube
v -49.864796 49.864803 49.864788
v -49.864796 -49.864803 -49.864788
v -49.864796 -49.864788 49.864803
v -49.864796 49.864788 -49.864803
v 49.864796 -49.864803 -49.864788
v 49.864796 49.864788 -49.864803
v 49.864796 -49.864788 49.864803
v 49.864796 49.864803 49.864788
vt 1.000000 0.000000
vt 0.000000 1.000000
vt 0.000000 0.000000
vt 1.000000 0.000000
vt 0.000000 1.000000
vt 0.000000 0.000000
vt 1.000000 0.000000
vt 0.000000 1.000000
vt 0.000000 0.000000
vt 1.000000 0.000000
vt 0.000000 1.000000
vt 0.000000 0.000000
vt 1.000000 0.000000
vt 0.000000 1.000000
vt 0.000000 0.000000
vt 1.000000 1.000000
vt 1.000000 1.000000
vt 1.000000 1.000000
vt 1.000000 1.000000
vt 1.000000 1.000000
vn -1.0000 -0.0000 0.0000
vn 0.0000 -0.0000 -1.0000
vn 1.0000 0.0000 0.0000
vn 0.0000 0.0000 1.0000
vn 0.0000 -1.0000 0.0000
vn 0.0000 1.0000 -0.0000
s off
f 1/1/1 2/2/1 3/3/1
f 4/4/2 5/5/2 2/6/2
f 6/7/3 7/8/3 5/9/3
f 8/10/4 3/11/4 7/12/4
f 5/13/5 3/11/5 2/6/5
f 4/4/6 8/14/6 6/15/6
f 1/1/1 4/16/1 2/2/1
f 4/4/2 6/17/2 5/5/2
f 6/7/3 8/18/3 7/8/3
f 8/10/4 1/19/4 3/11/4
f 5/13/5 7/20/5 3/11/5
f 4/4/6 1/19/6 8/14/6
