# Blender v2.79 (sub 0) OBJ File: ''
# www.blender.org
o Plane
v 144.643890 0.000000 -144.643890
v -144.643890 0.000000 -144.643890
v 144.643890 0.000000 144.643890
v -144.643890 0.000000 144.643890
v 144.643890 0.000000 0.000000
v 0.000000 0.000000 -144.643890
v -144.643890 0.000000 0.000000
v 0.000000 0.000000 144.643890
v 0.000000 0.000000 0.000000
v 144.643890 0.000000 -72.321945
v -72.321945 0.000000 -144.643890
v -144.643890 0.000000 72.321945
v 72.321945 0.000000 144.643890
v -72.321945 0.000000 -72.321945
v 144.643890 0.000000 72.321945
v 72.321945 0.000000 -144.643890
v -144.643890 0.000000 -72.321945
v -72.321945 0.000000 144.643890
v 72.321945 0.000000 72.321945
v 0.000000 0.000000 72.321945
v -72.321945 0.000000 0.000000
v -72.321945 0.000000 72.321945
v 72.321945 0.000000 -72.321945
v 0.000000 0.000000 -72.321945
v 72.321945 0.000000 0.000000
v 144.643890 0.000000 -108.482918
v -108.482918 0.000000 -144.643890
v -144.643890 0.000000 108.482918
v 108.482918 0.000000 144.643890
v -108.482918 0.000000 -108.482918
v 144.643890 0.000000 36.160973
v 36.160973 0.000000 -144.643890
v -144.643890 0.000000 -36.160973
v -36.160973 0.000000 144.643890
v 36.160973 0.000000 36.160973
v 0.000000 0.000000 108.482918
v -108.482918 0.000000 0.000000
v -108.482918 0.000000 36.160973
v 108.482918 0.000000 -36.160973
v 0.000000 0.000000 -36.160973
v 36.160973 0.000000 0.000000
v 144.643890 0.000000 -36.160973
v -36.160973 0.000000 -144.643890
v -144.643890 0.000000 36.160973
v 36.160973 0.000000 144.643890
v -36.160973 0.000000 -36.160973
v 144.643890 0.000000 108.482918
v 108.482918 0.000000 -144.643890
v -144.643890 0.000000 -108.482918
v -108.482918 0.000000 144.643890
v 108.482918 0.000000 108.482918
v 0.000000 0.000000 36.160973
v -36.160973 0.000000 0.000000
v -36.160973 0.000000 108.482918
v 36.160973 0.000000 -108.482918
v 0.000000 0.000000 -108.482918
v 108.482918 0.000000 0.000000
v 108.482918 0.000000 36.160973
v 72.321945 0.000000 36.160973
v 108.482918 0.000000 72.321945
v 72.321945 0.000000 -36.160973
v 36.160973 0.000000 -72.321945
v 36.160973 0.000000 -36.160973
v 108.482918 0.000000 -108.482918
v 72.321945 0.000000 -108.482918
v 108.482918 0.000000 -72.321945
v -72.321945 0.000000 108.482918
v -108.482918 0.000000 72.321945
v -108.482918 0.000000 108.482918
v -36.160973 0.000000 72.321945
v -36.160973 0.000000 36.160973
v -72.321945 0.000000 36.160973
v 72.321945 0.000000 108.482918
v 36.160973 0.000000 72.321945
v 36.160973 0.000000 108.482918
v -72.321945 0.000000 -36.160973
v -108.482918 0.000000 -72.321945
v -108.482918 0.000000 -36.160973
v -36.160973 0.000000 -108.482918
v -72.321945 0.000000 -108.482918
v -36.160973 0.000000 -72.321945
v 144.643890 0.000000 -126.563400
v -126.563400 0.000000 -144.643890
v -144.643890 0.000000 126.563400
v 126.563400 0.000000 144.643890
v -126.563400 0.000000 -126.563400
v 144.643890 0.000000 18.080486
v 18.080486 0.000000 -144.643890
v -144.643890 0.000000 -18.080486
v -18.080486 0.000000 144.643890
v 18.080486 0.000000 18.080486
v 0.000000 0.000000 126.563400
v -126.563400 0.000000 0.000000
v -126.563400 0.000000 18.080486
v 126.563400 0.000000 -18.080486
v 0.000000 0.000000 -18.080486
v 18.080486 0.000000 0.000000
v 144.643890 0.000000 -54.241459
v -54.241459 0.000000 -144.643890
v -144.643890 0.000000 54.241459
v 54.241459 0.000000 144.643890
v -54.241459 0.000000 -54.241459
v 144.643890 0.000000 90.402435
v 90.402435 0.000000 -144.643890
v -144.643890 0.000000 -90.402435
v -90.402435 0.000000 144.643890
v 90.402435 0.000000 90.402435
v 0.000000 0.000000 54.241459
v -54.241459 0.000000 0.000000
v -54.241459 0.000000 90.402435
v 54.241459 0.000000 -90.402435
v 0.000000 0.000000 -90.402435
v 90.402435 0.000000 0.000000
v 126.563400 0.000000 54.241459
v 72.321945 0.000000 54.241459
v 90.402435 0.000000 72.321945
v 72.321945 0.000000 -18.080486
v 18.080486 0.000000 -72.321945
v 18.080486 0.000000 -54.241459
v 126.563400 0.000000 -90.402435
v 72.321945 0.000000 -90.402435
v 90.402435 0.000000 -72.321945
v -72.321945 0.000000 126.563400
v -126.563400 0.000000 72.321945
v -126.563400 0.000000 90.402435
v -54.241459 0.000000 72.321945
v -54.241459 0.000000 18.080486
v -72.321945 0.000000 18.080486
v 72.321945 0.000000 126.563400
v 18.080486 0.000000 72.321945
v 18.080486 0.000000 90.402435
v -72.321945 0.000000 -18.080486
v -126.563400 0.000000 -72.321945
v -126.563400 0.000000 -54.241459
v -18.080486 0.000000 -90.402435
v -72.321945 0.000000 -90.402435
v -54.241459 0.000000 -72.321945
v 144.643890 0.000000 -90.402435
v -90.402435 0.000000 -144.643890
v -144.643890 0.000000 90.402435
v 90.402435 0.000000 144.643890
v -90.402435 0.000000 -90.402435
v 144.643890 0.000000 54.241459
v 54.241459 0.000000 -144.643890
v -144.643890 0.000000 -54.241459
v -54.241459 0.000000 144.643890
v 54.241459 0.000000 54.241459
v 0.000000 0.000000 90.402435
v -90.402435 0.000000 0.000000
v -90.402435 0.000000 54.241459
v 90.402435 0.000000 -54.241459
v 0.000000 0.000000 -54.241459
v 54.241459 0.000000 0.000000
v 144.643890 0.000000 -18.080486
v -18.080486 0.000000 -144.643890
v -144.643890 0.000000 18.080486
v 18.080486 0.000000 144.643890
v -18.080486 0.000000 -18.080486
v 144.643890 0.000000 126.563400
v 126.563400 0.000000 -144.643890
v -144.643890 0.000000 -126.563400
v -126.563400 0.000000 144.643890
v 126.563400 0.000000 126.563400
v 0.000000 0.000000 18.080486
v -18.080486 0.000000 0.000000
v -18.080486 0.000000 126.563400
v 18.080486 0.000000 -126.563400
v 0.000000 0.000000 -126.563400
v 126.563400 0.000000 0.000000
v 90.402435 0.000000 18.080486
v 72.321945 0.000000 18.080486
v 126.563400 0.000000 72.321945
v 72.321945 0.000000 -54.241459
v 54.241459 0.000000 -72.321945
v 54.241459 0.000000 -18.080486
v 90.402435 0.000000 -126.563400
v 72.321945 0.000000 -126.563400
v 126.563400 0.000000 -72.321945
v -72.321945 0.000000 90.402435
v -90.402435 0.000000 72.321945
v -90.402435 0.000000 126.563400
v -18.080486 0.000000 72.321945
v -18.080486 0.000000 54.241459
v -72.321945 0.000000 54.241459
v 72.321945 0.000000 90.402435
v 54.241459 0.000000 72.321945
v 54.241459 0.000000 126.563400
v -72.321945 0.000000 -54.241459
v -90.402435 0.000000 -72.321945
v -90.402435 0.000000 -18.080486
v -54.241459 0.000000 -126.563400
v -72.321945 0.000000 -126.563400
v -18.080486 0.000000 -72.321945
v -18.080486 0.000000 -54.241459
v -36.160973 0.000000 -54.241459
v -18.080486 0.000000 -36.160973
v -36.160973 0.000000 -90.402435
v -54.241459 0.000000 -108.482918
v -54.241459 0.000000 -90.402435
v -18.080486 0.000000 -126.563400
v -36.160973 0.000000 -126.563400
v -18.080486 0.000000 -108.482918
v -108.482918 0.000000 -18.080486
v -126.563400 0.000000 -36.160973
v -126.563400 0.000000 -18.080486
v -90.402435 0.000000 -36.160973
v -90.402435 0.000000 -54.241459
v -108.482918 0.000000 -54.241459
v -36.160973 0.000000 -18.080486
v -54.241459 0.000000 -36.160973
v -54.241459 0.000000 -18.080486
v 36.160973 0.000000 126.563400
v 18.080486 0.000000 108.482918
v 18.080486 0.000000 126.563400
v 54.241459 0.000000 108.482918
v 54.241459 0.000000 90.402435
v 36.160973 0.000000 90.402435
v 108.482918 0.000000 126.563400
v 90.402435 0.000000 108.482918
v 90.402435 0.000000 126.563400
v -90.402435 0.000000 36.160973
v -90.402435 0.000000 18.080486
v -108.482918 0.000000 18.080486
v -54.241459 0.000000 54.241459
v -36.160973 0.000000 54.241459
v -54.241459 0.000000 36.160973
v -18.080486 0.000000 108.482918
v -18.080486 0.000000 90.402435
v -36.160973 0.000000 90.402435
v -108.482918 0.000000 126.563400
v -126.563400 0.000000 108.482918
v -126.563400 0.000000 126.563400
v -90.402435 0.000000 108.482918
v -90.402435 0.000000 90.402435
v -108.482918 0.000000 90.402435
v -36.160973 0.000000 126.563400
v -54.241459 0.000000 108.482918
v -54.241459 0.000000 126.563400
v 126.563400 0.000000 -54.241459
v 108.482918 0.000000 -54.241459
v 126.563400 0.000000 -36.160973
v 108.482918 0.000000 -90.402435
v 90.402435 0.000000 -108.482918
v 90.402435 0.000000 -90.402435
v 126.563400 0.000000 -126.563400
v 108.482918 0.000000 -126.563400
v 126.563400 0.000000 -108.482918
v 36.160973 0.000000 -18.080486
v 18.080486 0.000000 -36.160973
v 18.080486 0.000000 -18.080486
v 54.241459 0.000000 -36.160973
v 54.241459 0.000000 -54.241459
v 36.160973 0.000000 -54.241459
v 108.482918 0.000000 -18.080486
v 90.402435 0.000000 -36.160973
v 90.402435 0.000000 -18.080486
v 126.563400 0.000000 90.402435
v 108.482918 0.000000 90.402435
v 126.563400 0.000000 108.482918
v 108.482918 0.000000 54.241459
v 90.402435 0.000000 36.160973
v 90.402435 0.000000 54.241459
v 126.563400 0.000000 18.080486
v 108.482918 0.000000 18.080486
v 126.563400 0.000000 36.160973
v 54.241459 0.000000 18.080486
v 36.160973 0.000000 18.080486
v 54.241459 0.000000 36.160973
v 36.160973 0.000000 -90.402435
v 18.080486 0.000000 -108.482918
v 18.080486 0.000000 -90.402435
v 54.241459 0.000000 -126.563400
v 36.160973 0.000000 -126.563400
v 54.241459 0.000000 -108.482918
v -108.482918 0.000000 54.241459
v -126.563400 0.000000 36.160973
v -126.563400 0.000000 54.241459
v -18.080486 0.000000 36.160973
v -18.080486 0.000000 18.080486
v -36.160973 0.000000 18.080486
v 36.160973 0.000000 54.241459
v 18.080486 0.000000 36.160973
v 18.080486 0.000000 54.241459
v -108.482918 0.000000 -90.402435
v -126.563400 0.000000 -108.482918
v -126.563400 0.000000 -90.402435
v -90.402435 0.000000 -126.563400
v -108.482918 0.000000 -126.563400
v -90.402435 0.000000 -108.482918
vt 0.999900 0.000100
vt 0.937413 0.062588
vt 0.937413 0.000100
vt 0.999900 0.062588
vt 0.500000 0.500000
vt 0.500000 0.562488
vt 0.437512 0.562488
vt 0.562487 0.500000
vt 0.999900 0.500000
vt 0.999900 0.562488
vt 0.937413 0.562488
vt 0.500000 0.000100
vt 0.437513 0.062588
vt 0.437513 0.000100
vt 0.500000 0.062588
vt 0.437513 0.500000
vt 0.250050 0.500000
vt 0.187563 0.562487
vt 0.187563 0.500000
vt 0.250050 0.562487
vt 0.250050 0.749950
vt 0.187562 0.812438
vt 0.187562 0.749950
vt 0.250050 0.250050
vt 0.250050 0.312537
vt 0.187563 0.312537
vt 0.312538 0.250050
vt 0.500000 0.250050
vt 0.500000 0.312538
vt 0.437513 0.312538
vt 0.250050 0.000100
vt 0.187563 0.062587
vt 0.187563 0.000100
vt 0.250050 0.062588
vt 0.187563 0.250050
vt 0.749950 0.749950
vt 0.749950 0.812438
vt 0.687463 0.812438
vt 0.812438 0.749950
vt 0.999900 0.749950
vt 0.999900 0.812438
vt 0.937413 0.812438
vt 0.500000 0.749950
vt 0.562487 0.749950
vt 0.500000 0.812438
vt 0.562487 0.687463
vt 0.749950 0.500000
vt 0.812438 0.500000
vt 0.749950 0.562488
vt 0.250050 0.812438
vt 0.312537 0.749950
vt 0.437512 0.812438
vt 0.749950 0.250050
vt 0.749950 0.312538
vt 0.687463 0.312538
vt 0.812438 0.250050
vt 0.999900 0.250050
vt 0.999900 0.312538
vt 0.937413 0.312538
vt 0.749950 0.000100
vt 0.687463 0.062588
vt 0.687463 0.000100
vt 0.749950 0.062588
vt 0.687463 0.250050
vt 0.624975 0.250050
vt 0.562487 0.312538
vt 0.562487 0.250050
vt 0.624975 0.312538
vt 0.624975 0.375025
vt 0.562487 0.437513
vt 0.562487 0.375025
vt 0.624975 0.125075
vt 0.624975 0.187563
vt 0.562487 0.187563
vt 0.687463 0.125075
vt 0.749950 0.125075
vt 0.749950 0.187563
vt 0.687463 0.187563
vt 0.624975 0.000100
vt 0.562488 0.062588
vt 0.562488 0.000100
vt 0.624975 0.062588
vt 0.562487 0.125075
vt 0.874925 0.375025
vt 0.874925 0.437513
vt 0.812438 0.437513
vt 0.937413 0.375025
vt 0.999900 0.375025
vt 0.999900 0.437513
vt 0.937413 0.437513
vt 0.749950 0.375025
vt 0.812438 0.375025
vt 0.749950 0.437513
vt 0.812438 0.312538
vt 0.874925 0.250050
vt 0.937413 0.250050
vt 0.874925 0.312538
vt 0.624975 0.437513
vt 0.687463 0.375025
vt 0.687463 0.437513
vt 0.375025 0.874925
vt 0.375025 0.937413
vt 0.312537 0.937413
vt 0.437512 0.874925
vt 0.500000 0.874925
vt 0.500000 0.937413
vt 0.437512 0.937413
vt 0.250050 0.874925
vt 0.312537 0.874925
vt 0.250050 0.937413
vt 0.312537 0.812438
vt 0.375025 0.749950
vt 0.437512 0.749950
vt 0.375025 0.812438
vt 0.125075 0.874925
vt 0.125075 0.937413
vt 0.062587 0.937413
vt 0.187562 0.874925
vt 0.187562 0.937413
vt 0.749950 0.624975
vt 0.812438 0.624975
vt 0.749950 0.687463
vt 0.812438 0.562488
vt 0.874925 0.500000
vt 0.937413 0.500000
vt 0.874925 0.562488
vt 0.624975 0.749950
vt 0.687463 0.687463
vt 0.687463 0.749950
vt 0.624975 0.687463
vt 0.624975 0.624975
vt 0.687463 0.562488
vt 0.687463 0.624975
vt 0.562487 0.874925
vt 0.562487 0.812438
vt 0.624975 0.812438
vt 0.874925 0.874925
vt 0.874925 0.937413
vt 0.812438 0.937413
vt 0.937413 0.874925
vt 0.999900 0.874925
vt 0.999900 0.937413
vt 0.937413 0.937413
vt 0.749950 0.874925
vt 0.812438 0.874925
vt 0.749950 0.937413
vt 0.812438 0.812438
vt 0.874925 0.749950
vt 0.937413 0.749950
vt 0.874925 0.812438
vt 0.624975 0.874925
vt 0.624975 0.937413
vt 0.562487 0.937413
vt 0.687463 0.874925
vt 0.687463 0.937413
vt 0.125075 0.250050
vt 0.062588 0.312537
vt 0.062588 0.250050
vt 0.125075 0.312537
vt 0.125075 0.375025
vt 0.062588 0.437513
vt 0.062588 0.375025
vt 0.125075 0.125075
vt 0.125075 0.187562
vt 0.062588 0.187562
vt 0.187563 0.125075
vt 0.250050 0.125075
vt 0.250050 0.187563
vt 0.187563 0.187563
vt 0.125075 0.000100
vt 0.062588 0.062587
vt 0.062588 0.000100
vt 0.125075 0.062587
vt 0.062588 0.125075
vt 0.375025 0.375025
vt 0.375025 0.437513
vt 0.312537 0.437513
vt 0.437513 0.375025
vt 0.500000 0.375025
vt 0.500000 0.437513
vt 0.437513 0.437513
vt 0.250050 0.375025
vt 0.312537 0.375025
vt 0.250050 0.437513
vt 0.312538 0.312537
vt 0.375025 0.250050
vt 0.437513 0.250050
vt 0.375025 0.312538
vt 0.125075 0.437513
vt 0.187563 0.375025
vt 0.187563 0.437513
vt 0.125075 0.749950
vt 0.062587 0.812438
vt 0.062587 0.749950
vt 0.125075 0.812438
vt 0.062587 0.874925
vt 0.125075 0.624975
vt 0.125075 0.687463
vt 0.062588 0.687463
vt 0.187563 0.624975
vt 0.250050 0.624975
vt 0.250050 0.687463
vt 0.187562 0.687463
vt 0.125075 0.500000
vt 0.062588 0.562487
vt 0.062588 0.500000
vt 0.125075 0.562487
vt 0.062588 0.624975
vt 0.375025 0.500000
vt 0.312537 0.562487
vt 0.312537 0.500000
vt 0.375025 0.562488
vt 0.375025 0.624975
vt 0.312537 0.687463
vt 0.312537 0.624975
vt 0.375025 0.125075
vt 0.375025 0.187563
vt 0.312538 0.187563
vt 0.437513 0.125075
vt 0.500000 0.125075
vt 0.500000 0.187563
vt 0.437513 0.187563
vt 0.375025 0.000100
vt 0.312538 0.062588
vt 0.312538 0.000100
vt 0.375025 0.062588
vt 0.312538 0.125075
vt 0.874925 0.624975
vt 0.874925 0.687463
vt 0.812438 0.687463
vt 0.937413 0.624975
vt 0.999900 0.624975
vt 0.999900 0.687463
vt 0.937413 0.687463
vt 0.500000 0.624975
vt 0.562487 0.624975
vt 0.500000 0.687463
vt 0.562487 0.562488
vt 0.624975 0.500000
vt 0.687463 0.500000
vt 0.624975 0.562488
vt 0.375025 0.687463
vt 0.437512 0.624975
vt 0.437512 0.687463
vt 0.874925 0.125075
vt 0.874925 0.187563
vt 0.812438 0.187563
vt 0.937413 0.125075
vt 0.999900 0.125075
vt 0.999900 0.187563
vt 0.937413 0.187563
vt 0.874925 0.000100
vt 0.812438 0.062588
vt 0.812438 0.000100
vt 0.874925 0.062588
vt 0.812438 0.125075
vt 0.000100 0.687463
vt 0.000100 0.624975
vt 0.000100 0.749950
vt 0.000100 0.562487
vt 0.000100 0.500000
vt 0.000100 0.937413
vt 0.000100 0.874925
vt 0.000100 0.999900
vt 0.000100 0.812438
vt 0.000100 0.187562
vt 0.000100 0.125075
vt 0.000100 0.250050
vt 0.000100 0.062587
vt 0.000100 0.000100
vt 0.000100 0.437512
vt 0.000100 0.375025
vt 0.000100 0.312537
vt 0.687463 0.999900
vt 0.624975 0.999900
vt 0.749950 0.999900
vt 0.562487 0.999900
vt 0.500000 0.999900
vt 0.937413 0.999900
vt 0.874925 0.999900
vt 0.999900 0.999900
vt 0.812438 0.999900
vt 0.187562 0.999900
vt 0.125075 0.999900
vt 0.250050 0.999900
vt 0.062587 0.999900
vt 0.437512 0.999900
vt 0.375025 0.999900
vt 0.312537 0.999900
vn 0.0000 1.0000 0.0000
s off
f 2/1/1 86/2/1 83/3/1
f 2/1/1 161/4/1 86/2/1
f 9/5/1 164/6/1 91/7/1
f 9/5/1 165/8/1 164/6/1
f 7/9/1 156/10/1 94/11/1
f 6/12/1 167/13/1 88/14/1
f 6/12/1 168/15/1 167/13/1
f 9/5/1 91/7/1 97/16/1
f 25/17/1 170/18/1 113/19/1
f 25/17/1 171/20/1 170/18/1
f 19/21/1 107/22/1 116/23/1
f 23/24/1 173/25/1 151/26/1
f 23/24/1 174/27/1 173/25/1
f 24/28/1 152/29/1 119/30/1
f 16/31/1 176/32/1 104/33/1
f 16/31/1 177/34/1 176/32/1
f 23/24/1 151/26/1 122/35/1
f 22/36/1 179/37/1 110/38/1
f 22/36/1 180/39/1 179/37/1
f 12/40/1 140/41/1 125/42/1
f 20/43/1 182/44/1 148/45/1
f 20/43/1 183/46/1 182/44/1
f 21/47/1 149/48/1 128/49/1
f 19/21/1 185/50/1 107/22/1
f 19/21/1 186/51/1 185/50/1
f 20/43/1 148/45/1 131/52/1
f 14/53/1 188/54/1 102/55/1
f 14/53/1 189/56/1 188/54/1
f 17/57/1 145/58/1 134/59/1
f 11/60/1 191/61/1 99/62/1
f 11/60/1 192/63/1 191/61/1
f 14/53/1 102/55/1 137/64/1
f 81/65/1 194/66/1 193/67/1
f 81/65/1 195/68/1 194/66/1
f 46/69/1 158/70/1 196/71/1
f 79/72/1 197/73/1 135/74/1
f 79/72/1 198/75/1 197/73/1
f 80/76/1 136/77/1 199/78/1
f 43/79/1 200/80/1 155/81/1
f 43/79/1 201/82/1 200/80/1
f 79/72/1 135/74/1 202/83/1
f 78/84/1 203/85/1 190/86/1
f 78/84/1 204/87/1 203/85/1
f 33/88/1 89/89/1 205/90/1
f 76/91/1 206/92/1 132/93/1
f 76/91/1 207/94/1 206/92/1
f 77/95/1 133/96/1 208/97/1
f 46/69/1 209/98/1 158/70/1
f 46/69/1 210/99/1 209/98/1
f 76/91/1 132/93/1 211/100/1
f 75/101/1 212/102/1 187/103/1
f 75/101/1 213/104/1 212/102/1
f 36/105/1 92/106/1 214/107/1
f 73/108/1 215/109/1 129/110/1
f 73/108/1 216/111/1 215/109/1
f 74/112/1 130/113/1 217/114/1
f 51/115/1 218/116/1 163/117/1
f 51/115/1 219/118/1 218/116/1
f 73/108/1 129/110/1 220/119/1
f 72/120/1 221/121/1 184/122/1
f 72/120/1 222/123/1 221/121/1
f 37/124/1 93/125/1 223/126/1
f 70/127/1 224/128/1 126/129/1
f 70/127/1 225/130/1 224/128/1
f 71/131/1 127/132/1 226/133/1
f 36/105/1 227/134/1 92/106/1
f 36/105/1 228/135/1 227/134/1
f 70/127/1 126/129/1 229/136/1
f 69/137/1 230/138/1 181/139/1
f 69/137/1 231/140/1 230/138/1
f 28/141/1 84/142/1 232/143/1
f 67/144/1 233/145/1 123/146/1
f 67/144/1 234/147/1 233/145/1
f 68/148/1 124/149/1 235/150/1
f 54/151/1 236/152/1 166/153/1
f 54/151/1 237/154/1 236/152/1
f 67/144/1 123/146/1 238/155/1
f 66/156/1 239/157/1 178/158/1
f 66/156/1 240/159/1 239/157/1
f 39/160/1 95/161/1 241/162/1
f 64/163/1 242/164/1 120/165/1
f 64/163/1 243/166/1 242/164/1
f 65/167/1 121/168/1 244/169/1
f 48/170/1 245/171/1 160/172/1
f 48/170/1 246/173/1 245/171/1
f 64/163/1 120/165/1 247/174/1
f 63/175/1 248/176/1 175/177/1
f 63/175/1 249/178/1 248/176/1
f 40/179/1 96/180/1 250/181/1
f 61/182/1 251/183/1 117/184/1
f 61/182/1 252/185/1 251/183/1
f 62/186/1 118/187/1 253/188/1
f 39/160/1 254/189/1 95/161/1
f 39/160/1 255/190/1 254/189/1
f 61/182/1 117/184/1 256/191/1
f 60/192/1 257/193/1 172/194/1
f 60/192/1 258/195/1 257/193/1
f 51/115/1 163/117/1 259/196/1
f 58/197/1 260/198/1 114/199/1
f 58/197/1 261/200/1 260/198/1
f 59/201/1 115/202/1 262/203/1
f 57/204/1 263/205/1 169/206/1
f 57/204/1 264/207/1 263/205/1
f 58/197/1 114/199/1 265/208/1
f 41/209/1 266/210/1 153/211/1
f 41/209/1 267/212/1 266/210/1
f 35/213/1 147/214/1 268/215/1
f 55/216/1 269/217/1 111/218/1
f 55/216/1 270/219/1 269/217/1
f 56/220/1 112/221/1 271/222/1
f 32/223/1 272/224/1 144/225/1
f 32/223/1 273/226/1 272/224/1
f 55/216/1 111/218/1 274/227/1
f 38/228/1 275/229/1 150/230/1
f 38/228/1 276/231/1 275/229/1
f 44/232/1 100/233/1 277/234/1
f 52/235/1 278/236/1 108/237/1
f 52/235/1 279/238/1 278/236/1
f 53/239/1 109/240/1 280/241/1
f 35/213/1 281/242/1 147/214/1
f 35/213/1 282/243/1 281/242/1
f 52/235/1 108/237/1 283/244/1
f 30/245/1 284/246/1 142/247/1
f 30/245/1 285/248/1 284/246/1
f 49/249/1 105/250/1 286/251/1
f 27/252/1 287/253/1 139/254/1
f 27/252/1 288/255/1 287/253/1
f 30/245/1 142/247/1 289/256/1
f 289/256/1 136/77/1 80/76/1
f 289/256/1 142/247/1 136/77/1
f 142/247/1 14/53/1 136/77/1
f 287/253/1 289/256/1 80/76/1
f 287/253/1 288/255/1 289/256/1
f 288/255/1 30/245/1 289/256/1
f 139/254/1 192/63/1 11/60/1
f 139/254/1 287/253/1 192/63/1
f 287/253/1 80/76/1 192/63/1
f 286/251/1 133/96/1 77/95/1
f 286/251/1 105/250/1 133/96/1
f 105/250/1 17/57/1 133/96/1
f 284/246/1 286/251/1 77/95/1
f 284/246/1 285/248/1 286/251/1
f 285/248/1 49/249/1 286/251/1
f 142/247/1 189/56/1 14/53/1
f 142/247/1 284/246/1 189/56/1
f 284/246/1 77/95/1 189/56/1
f 283/244/1 130/113/1 74/112/1
f 283/244/1 108/237/1 130/113/1
f 108/237/1 20/43/1 130/113/1
f 281/242/1 283/244/1 74/112/1
f 281/242/1 282/243/1 283/244/1
f 282/243/1 52/235/1 283/244/1
f 147/214/1 186/51/1 19/21/1
f 147/214/1 281/242/1 186/51/1
f 281/242/1 74/112/1 186/51/1
f 280/241/1 127/132/1 71/131/1
f 280/241/1 109/240/1 127/132/1
f 109/240/1 21/47/1 127/132/1
f 278/236/1 280/241/1 71/131/1
f 278/236/1 279/238/1 280/241/1
f 279/238/1 53/239/1 280/241/1
f 108/237/1 183/46/1 20/43/1
f 108/237/1 278/236/1 183/46/1
f 278/236/1 71/131/1 183/46/1
f 277/234/1 124/149/1 68/148/1
f 277/234/1 100/233/1 124/149/1
f 100/233/1 12/40/1 124/149/1
f 275/229/1 277/234/1 68/148/1
f 275/229/1 276/231/1 277/234/1
f 276/231/1 44/232/1 277/234/1
f 150/230/1 180/39/1 22/36/1
f 150/230/1 275/229/1 180/39/1
f 275/229/1 68/148/1 180/39/1
f 274/227/1 121/168/1 65/167/1
f 274/227/1 111/218/1 121/168/1
f 111/218/1 23/24/1 121/168/1
f 272/224/1 274/227/1 65/167/1
f 272/224/1 273/226/1 274/227/1
f 273/226/1 55/216/1 274/227/1
f 144/225/1 177/34/1 16/31/1
f 144/225/1 272/224/1 177/34/1
f 272/224/1 65/167/1 177/34/1
f 271/222/1 118/187/1 62/186/1
f 271/222/1 112/221/1 118/187/1
f 112/221/1 24/28/1 118/187/1
f 269/217/1 271/222/1 62/186/1
f 269/217/1 270/219/1 271/222/1
f 270/219/1 56/220/1 271/222/1
f 111/218/1 174/27/1 23/24/1
f 111/218/1 269/217/1 174/27/1
f 269/217/1 62/186/1 174/27/1
f 268/215/1 115/202/1 59/201/1
f 268/215/1 147/214/1 115/202/1
f 147/214/1 19/21/1 115/202/1
f 266/210/1 268/215/1 59/201/1
f 266/210/1 267/212/1 268/215/1
f 267/212/1 35/213/1 268/215/1
f 153/211/1 171/20/1 25/17/1
f 153/211/1 266/210/1 171/20/1
f 266/210/1 59/201/1 171/20/1
f 265/208/1 143/257/1 31/258/1
f 265/208/1 114/199/1 143/257/1
f 114/199/1 15/259/1 143/257/1
f 263/205/1 265/208/1 31/258/1
f 263/205/1 264/207/1 265/208/1
f 264/207/1 58/197/1 265/208/1
f 169/206/1 87/260/1 5/261/1
f 169/206/1 263/205/1 87/260/1
f 263/205/1 31/258/1 87/260/1
f 262/203/1 116/23/1 60/192/1
f 262/203/1 115/202/1 116/23/1
f 115/202/1 19/21/1 116/23/1
f 260/198/1 262/203/1 60/192/1
f 260/198/1 261/200/1 262/203/1
f 261/200/1 59/201/1 262/203/1
f 114/199/1 172/194/1 15/259/1
f 114/199/1 260/198/1 172/194/1
f 260/198/1 60/192/1 172/194/1
f 259/196/1 159/262/1 47/263/1
f 259/196/1 163/117/1 159/262/1
f 163/117/1 3/264/1 159/262/1
f 257/193/1 259/196/1 47/263/1
f 257/193/1 258/195/1 259/196/1
f 258/195/1 51/115/1 259/196/1
f 172/194/1 103/265/1 15/259/1
f 172/194/1 257/193/1 103/265/1
f 257/193/1 47/263/1 103/265/1
f 256/191/1 113/19/1 57/204/1
f 256/191/1 117/184/1 113/19/1
f 117/184/1 25/17/1 113/19/1
f 254/189/1 256/191/1 57/204/1
f 254/189/1 255/190/1 256/191/1
f 255/190/1 61/182/1 256/191/1
f 95/161/1 169/206/1 5/261/1
f 95/161/1 254/189/1 169/206/1
f 254/189/1 57/204/1 169/206/1
f 253/188/1 119/30/1 63/175/1
f 253/188/1 118/187/1 119/30/1
f 118/187/1 24/28/1 119/30/1
f 251/183/1 253/188/1 63/175/1
f 251/183/1 252/185/1 253/188/1
f 252/185/1 62/186/1 253/188/1
f 117/184/1 175/177/1 25/17/1
f 117/184/1 251/183/1 175/177/1
f 251/183/1 63/175/1 175/177/1
f 250/181/1 97/16/1 41/209/1
f 250/181/1 96/180/1 97/16/1
f 96/180/1 9/5/1 97/16/1
f 248/176/1 250/181/1 41/209/1
f 248/176/1 249/178/1 250/181/1
f 249/178/1 40/179/1 250/181/1
f 175/177/1 153/211/1 25/17/1
f 175/177/1 248/176/1 153/211/1
f 248/176/1 41/209/1 153/211/1
f 247/174/1 138/266/1 26/267/1
f 247/174/1 120/165/1 138/266/1
f 120/165/1 10/268/1 138/266/1
f 245/171/1 247/174/1 26/267/1
f 245/171/1 246/173/1 247/174/1
f 246/173/1 64/163/1 247/174/1
f 160/172/1 82/269/1 1/270/1
f 160/172/1 245/171/1 82/269/1
f 245/171/1 26/267/1 82/269/1
f 244/169/1 122/35/1 66/156/1
f 244/169/1 121/168/1 122/35/1
f 121/168/1 23/24/1 122/35/1
f 242/164/1 244/169/1 66/156/1
f 242/164/1 243/166/1 244/169/1
f 243/166/1 65/167/1 244/169/1
f 120/165/1 178/158/1 10/268/1
f 120/165/1 242/164/1 178/158/1
f 242/164/1 66/156/1 178/158/1
f 241/162/1 154/271/1 42/272/1
f 241/162/1 95/161/1 154/271/1
f 95/161/1 5/261/1 154/271/1
f 239/157/1 241/162/1 42/272/1
f 239/157/1 240/159/1 241/162/1
f 240/159/1 39/160/1 241/162/1
f 178/158/1 98/273/1 10/268/1
f 178/158/1 239/157/1 98/273/1
f 239/157/1 42/272/1 98/273/1
f 238/155/1 146/274/1 34/275/1
f 238/155/1 123/146/1 146/274/1
f 123/146/1 18/276/1 146/274/1
f 236/152/1 238/155/1 34/275/1
f 236/152/1 237/154/1 238/155/1
f 237/154/1 67/144/1 238/155/1
f 166/153/1 90/277/1 8/278/1
f 166/153/1 236/152/1 90/277/1
f 236/152/1 34/275/1 90/277/1
f 235/150/1 125/42/1 69/137/1
f 235/150/1 124/149/1 125/42/1
f 124/149/1 12/40/1 125/42/1
f 233/145/1 235/150/1 69/137/1
f 233/145/1 234/147/1 235/150/1
f 234/147/1 68/148/1 235/150/1
f 123/146/1 181/139/1 18/276/1
f 123/146/1 233/145/1 181/139/1
f 233/145/1 69/137/1 181/139/1
f 232/143/1 162/279/1 50/280/1
f 232/143/1 84/142/1 162/279/1
f 84/142/1 4/281/1 162/279/1
f 230/138/1 232/143/1 50/280/1
f 230/138/1 231/140/1 232/143/1
f 231/140/1 28/141/1 232/143/1
f 181/139/1 106/282/1 18/276/1
f 181/139/1 230/138/1 106/282/1
f 230/138/1 50/280/1 106/282/1
f 229/136/1 110/38/1 54/151/1
f 229/136/1 126/129/1 110/38/1
f 126/129/1 22/36/1 110/38/1
f 227/134/1 229/136/1 54/151/1
f 227/134/1 228/135/1 229/136/1
f 228/135/1 70/127/1 229/136/1
f 92/106/1 166/153/1 8/278/1
f 92/106/1 227/134/1 166/153/1
f 227/134/1 54/151/1 166/153/1
f 226/133/1 128/49/1 72/120/1
f 226/133/1 127/132/1 128/49/1
f 127/132/1 21/47/1 128/49/1
f 224/128/1 226/133/1 72/120/1
f 224/128/1 225/130/1 226/133/1
f 225/130/1 71/131/1 226/133/1
f 126/129/1 184/122/1 22/36/1
f 126/129/1 224/128/1 184/122/1
f 224/128/1 72/120/1 184/122/1
f 223/126/1 94/11/1 38/228/1
f 223/126/1 93/125/1 94/11/1
f 93/125/1 7/9/1 94/11/1
f 221/121/1 223/126/1 38/228/1
f 221/121/1 222/123/1 223/126/1
f 222/123/1 37/124/1 223/126/1
f 184/122/1 150/230/1 22/36/1
f 184/122/1 221/121/1 150/230/1
f 221/121/1 38/228/1 150/230/1
f 220/119/1 141/283/1 29/284/1
f 220/119/1 129/110/1 141/283/1
f 129/110/1 13/285/1 141/283/1
f 218/116/1 220/119/1 29/284/1
f 218/116/1 219/118/1 220/119/1
f 219/118/1 73/108/1 220/119/1
f 163/117/1 85/286/1 3/264/1
f 163/117/1 218/116/1 85/286/1
f 218/116/1 29/284/1 85/286/1
f 217/114/1 131/52/1 75/101/1
f 217/114/1 130/113/1 131/52/1
f 130/113/1 20/43/1 131/52/1
f 215/109/1 217/114/1 75/101/1
f 215/109/1 216/111/1 217/114/1
f 216/111/1 74/112/1 217/114/1
f 129/110/1 187/103/1 13/285/1
f 129/110/1 215/109/1 187/103/1
f 215/109/1 75/101/1 187/103/1
f 214/107/1 157/287/1 45/288/1
f 214/107/1 92/106/1 157/287/1
f 92/106/1 8/278/1 157/287/1
f 212/102/1 214/107/1 45/288/1
f 212/102/1 213/104/1 214/107/1
f 213/104/1 36/105/1 214/107/1
f 187/103/1 101/289/1 13/285/1
f 187/103/1 212/102/1 101/289/1
f 212/102/1 45/288/1 101/289/1
f 211/100/1 109/240/1 53/239/1
f 211/100/1 132/93/1 109/240/1
f 132/93/1 21/47/1 109/240/1
f 209/98/1 211/100/1 53/239/1
f 209/98/1 210/99/1 211/100/1
f 210/99/1 76/91/1 211/100/1
f 158/70/1 165/8/1 9/5/1
f 158/70/1 209/98/1 165/8/1
f 209/98/1 53/239/1 165/8/1
f 208/97/1 134/59/1 78/84/1
f 208/97/1 133/96/1 134/59/1
f 133/96/1 17/57/1 134/59/1
f 206/92/1 208/97/1 78/84/1
f 206/92/1 207/94/1 208/97/1
f 207/94/1 77/95/1 208/97/1
f 132/93/1 190/86/1 21/47/1
f 132/93/1 206/92/1 190/86/1
f 206/92/1 78/84/1 190/86/1
f 205/90/1 93/125/1 37/124/1
f 205/90/1 89/89/1 93/125/1
f 89/89/1 7/9/1 93/125/1
f 203/85/1 205/90/1 37/124/1
f 203/85/1 204/87/1 205/90/1
f 204/87/1 33/88/1 205/90/1
f 190/86/1 149/48/1 21/47/1
f 190/86/1 203/85/1 149/48/1
f 203/85/1 37/124/1 149/48/1
f 202/83/1 112/221/1 56/220/1
f 202/83/1 135/74/1 112/221/1
f 135/74/1 24/28/1 112/221/1
f 200/80/1 202/83/1 56/220/1
f 200/80/1 201/82/1 202/83/1
f 201/82/1 79/72/1 202/83/1
f 155/81/1 168/15/1 6/12/1
f 155/81/1 200/80/1 168/15/1
f 200/80/1 56/220/1 168/15/1
f 199/78/1 137/64/1 81/65/1
f 199/78/1 136/77/1 137/64/1
f 136/77/1 14/53/1 137/64/1
f 197/73/1 199/78/1 81/65/1
f 197/73/1 198/75/1 199/78/1
f 198/75/1 80/76/1 199/78/1
f 135/74/1 193/67/1 24/28/1
f 135/74/1 197/73/1 193/67/1
f 197/73/1 81/65/1 193/67/1
f 196/71/1 96/180/1 40/179/1
f 196/71/1 158/70/1 96/180/1
f 158/70/1 9/5/1 96/180/1
f 194/66/1 196/71/1 40/179/1
f 194/66/1 195/68/1 196/71/1
f 195/68/1 46/69/1 196/71/1
f 193/67/1 152/29/1 24/28/1
f 193/67/1 194/66/1 152/29/1
f 194/66/1 40/179/1 152/29/1
f 137/64/1 195/68/1 81/65/1
f 137/64/1 102/55/1 195/68/1
f 102/55/1 46/69/1 195/68/1
f 191/61/1 198/75/1 79/72/1
f 191/61/1 192/63/1 198/75/1
f 192/63/1 80/76/1 198/75/1
f 99/62/1 201/82/1 43/79/1
f 99/62/1 191/61/1 201/82/1
f 191/61/1 79/72/1 201/82/1
f 134/59/1 204/87/1 78/84/1
f 134/59/1 145/58/1 204/87/1
f 145/58/1 33/88/1 204/87/1
f 188/54/1 207/94/1 76/91/1
f 188/54/1 189/56/1 207/94/1
f 189/56/1 77/95/1 207/94/1
f 102/55/1 210/99/1 46/69/1
f 102/55/1 188/54/1 210/99/1
f 188/54/1 76/91/1 210/99/1
f 131/52/1 213/104/1 75/101/1
f 131/52/1 148/45/1 213/104/1
f 148/45/1 36/105/1 213/104/1
f 185/50/1 216/111/1 73/108/1
f 185/50/1 186/51/1 216/111/1
f 186/51/1 74/112/1 216/111/1
f 107/22/1 219/118/1 51/115/1
f 107/22/1 185/50/1 219/118/1
f 185/50/1 73/108/1 219/118/1
f 128/49/1 222/123/1 72/120/1
f 128/49/1 149/48/1 222/123/1
f 149/48/1 37/124/1 222/123/1
f 182/44/1 225/130/1 70/127/1
f 182/44/1 183/46/1 225/130/1
f 183/46/1 71/131/1 225/130/1
f 148/45/1 228/135/1 36/105/1
f 148/45/1 182/44/1 228/135/1
f 182/44/1 70/127/1 228/135/1
f 125/42/1 231/140/1 69/137/1
f 125/42/1 140/41/1 231/140/1
f 140/41/1 28/141/1 231/140/1
f 179/37/1 234/147/1 67/144/1
f 179/37/1 180/39/1 234/147/1
f 180/39/1 68/148/1 234/147/1
f 110/38/1 237/154/1 54/151/1
f 110/38/1 179/37/1 237/154/1
f 179/37/1 67/144/1 237/154/1
f 122/35/1 240/159/1 66/156/1
f 122/35/1 151/26/1 240/159/1
f 151/26/1 39/160/1 240/159/1
f 176/32/1 243/166/1 64/163/1
f 176/32/1 177/34/1 243/166/1
f 177/34/1 65/167/1 243/166/1
f 104/33/1 246/173/1 48/170/1
f 104/33/1 176/32/1 246/173/1
f 176/32/1 64/163/1 246/173/1
f 119/30/1 249/178/1 63/175/1
f 119/30/1 152/29/1 249/178/1
f 152/29/1 40/179/1 249/178/1
f 173/25/1 252/185/1 61/182/1
f 173/25/1 174/27/1 252/185/1
f 174/27/1 62/186/1 252/185/1
f 151/26/1 255/190/1 39/160/1
f 151/26/1 173/25/1 255/190/1
f 173/25/1 61/182/1 255/190/1
f 116/23/1 258/195/1 60/192/1
f 116/23/1 107/22/1 258/195/1
f 107/22/1 51/115/1 258/195/1
f 170/18/1 261/200/1 58/197/1
f 170/18/1 171/20/1 261/200/1
f 171/20/1 59/201/1 261/200/1
f 113/19/1 264/207/1 57/204/1
f 113/19/1 170/18/1 264/207/1
f 170/18/1 58/197/1 264/207/1
f 97/16/1 267/212/1 41/209/1
f 97/16/1 91/7/1 267/212/1
f 91/7/1 35/213/1 267/212/1
f 167/13/1 270/219/1 55/216/1
f 167/13/1 168/15/1 270/219/1
f 168/15/1 56/220/1 270/219/1
f 88/14/1 273/226/1 32/223/1
f 88/14/1 167/13/1 273/226/1
f 167/13/1 55/216/1 273/226/1
f 94/11/1 276/231/1 38/228/1
f 94/11/1 156/10/1 276/231/1
f 156/10/1 44/232/1 276/231/1
f 164/6/1 279/238/1 52/235/1
f 164/6/1 165/8/1 279/238/1
f 165/8/1 53/239/1 279/238/1
f 91/7/1 282/243/1 35/213/1
f 91/7/1 164/6/1 282/243/1
f 164/6/1 52/235/1 282/243/1
f 86/2/1 285/248/1 30/245/1
f 86/2/1 161/4/1 285/248/1
f 161/4/1 49/249/1 285/248/1
f 83/3/1 288/255/1 27/252/1
f 83/3/1 86/2/1 288/255/1
f 86/2/1 30/245/1 288/255/1
